…
## Experiment and data



In brief, $^{15}N$-enriched ammonium was dripped in two streams in Trinidad, and samples of the different foodweb compartments were taken during the drip and after the drip in several transects in each stream. The transects were located at different locations downstream of each drip. The drip phase lasted 10 days, and the post-drip phase lasted 30 days. Here is a glimpse of the dataset (we will use only the data from one stream for simplicity, but for a real analysis one could keep both streams and use stream identity as a covariate to estimate the stream effect on flows - see the [case study about eelgrasses](https://matthieu-bruneaux.gitlab.io/isotracer/articles/case-study-mcroy-1970.html) for an example of treatments comparison):


```r
lalaja
```

```
## # A tibble: 223 × 6
##    stream transect   compartment time.days mgN.per.m2  prop15N
##    <chr>  <chr>      <chr>           <dbl>      <dbl>    <dbl>
##  1 UL     transect.1 FBOM                1      5657. NA      
##  2 UL     transect.1 FBOM                1        NA   0.00372
##  3 UL     transect.1 FBOM                4        NA   0.00389
##  4 UL     transect.1 FBOM                7        NA   0.00434
##  5 UL     transect.1 FBOM               10        NA   0.00439
##  6 UL     transect.1 FBOM               14        NA   0.00428
##  7 UL     transect.1 FBOM               17        NA   0.00401
##  8 UL     transect.1 FBOM               20        NA   0.00424
##  9 UL     transect.1 FBOM               30        NA   0.00422
## 10 UL     transect.1 FBOM               40        NA   0.00390
## # … with 213 more rows
```
…
<img src="figures/z-fig-cs-collins-2016-unnamed-chunk-7-1.png" title="plot of chunk unnamed-chunk-7" alt="plot of chunk unnamed-chunk-7" style="display: block; margin: auto;" />

### Initial conditions and observations

The drip of $^{15}N$-enriched ammonium was started at the very beginning of the experiment, and the initial conditions reflect the enrichment observed for NH4 and NO3 (only ammonium is dripped, but it is converted to nitrate quite rapidly and the experimental setup is thus equivalent to a drip phase for both ions).

The initial conditions are contained in a `tibble`:


```r
inits
```

```
## # A tibble: 24 × 5
## # Groups:   stream, transect [3]
##    stream transect   compartment mgN.per.m2 prop15N
##    <chr>  <chr>      <chr>            <dbl>   <dbl>
##  1 UL     transect.1 NH4              0.300 0.0240 
##  2 UL     transect.1 NO3             31.5   0.00397
##  3 UL     transect.2 NH4              0.300 0.0140 
##  4 UL     transect.2 NO3             31.5   0.00407
##  5 UL     transect.3 NH4              0.300 0.00694
##  6 UL     transect.3 NO3             31.5   0.00413
##  7 UL     transect.1 arg              2.31  0.00366
##  8 UL     transect.2 arg              2.31  0.00366
##  9 UL     transect.3 arg              2.31  0.00366
## 10 UL     transect.1 epi            329.    0.00366
## # … with 14 more rows
```
…
