…
<img src="figures/z-fig-120-unnamed-chunk-11-1.png" title="plot of chunk unnamed-chunk-11" alt="plot of chunk unnamed-chunk-11" style="display: block; margin: auto;" />

Real-life data will incorporate some variability around those trajectories. To simulate data with variability around expected compartment size (coefficient of variation `"zeta"`) and around expected proportion of tracer (c.v. `"eta"`), one can use the `sample_from()` function:


```r
spl <- mod %>% sample_from(at = 1:10)
spl
```

```
## # A tibble: 60 × 5
##     time comp   size   prop treatment
##    <dbl> <chr> <dbl>  <dbl> <chr>    
##  1     1 algae 0.958 0.0459 light    
##  2     2 algae 0.842 0.0895 light    
##  3     3 algae 0.930 0.0783 light    
##  4     4 algae 0.875 0.103  light    
##  5     5 algae 0.936 0.153  light    
##  6     6 algae 0.843 0.116  light    
##  7     7 algae 0.677 0.0982 light    
##  8     8 algae 0.750 0.0935 light    
##  9     9 algae 0.904 0.0775 light    
## 10    10 algae 0.888 0.0968 light    
## # … with 50 more rows
```
…
