…
In this case we have only one grouping variable (`aquariumID`), but we could have more (for example some experimental treatments such as temperature or oxygen manipulation).

The final step of the model preparation is to add the observations. Let's extract them from the `exp` table, keeping only rows after $t_0$:


```r
obs <- exp %>% filter(time.day > 0)
obs
```

```
## # A tibble: 24 × 5
##    time.day species biomass prop15N aquariumID
##       <dbl> <chr>     <dbl>   <dbl> <chr>     
##  1        2 algae     NA       0.08 aq01      
##  2        5 algae      0.81    0.08 aq01      
##  3        8 algae      0.82   NA    aq01      
##  4       10 algae     NA       0.11 aq01      
##  5        2 daphnia    1.79   NA    aq01      
##  6        5 daphnia    2.24    0.02 aq01      
##  7        8 daphnia   NA       0.02 aq01      
##  8       10 daphnia    1.86    0.04 aq01      
##  9        2 NH4        0.25   NA    aq01      
## 10        5 NH4       NA       0.14 aq01      
## # … with 14 more rows
```
…
