…
or to a tibble:


```r
z <- tibble::as_tibble(as.matrix(fit))
z
```

```
## # A tibble: 2,000 × 8
##       eta lambda_algae lambda_daphnia lambda_NH4 upsilon_alga…¹ upsil…² upsil…³  zeta
##     <dbl>        <dbl>          <dbl>      <dbl>          <dbl>   <dbl>   <dbl> <dbl>
##  1 0.147        0.0821         0.0435    0.114           0.0803  0.0470   0.358 0.392
##  2 0.0681       0.0258         0.0236    0.0485          0.0617  0.0486   0.362 0.259
##  3 0.101        0.133          0.0110    0.0516          0.0675  0.0484   0.355 0.265
##  4 0.124        0.101          0.0258    0.00482         0.0886  0.0501   0.324 0.310
##  5 0.0935       0.0550         0.0304    0.00586         0.0732  0.0491   0.306 0.325
##  6 0.0864       0.0649         0.0364    0.0133          0.0600  0.0573   0.353 0.357
##  7 0.0739       0.0137         0.0506    0.0376          0.0569  0.0517   0.353 0.316
##  8 0.0685       0.0124         0.0369    0.0367          0.0639  0.0494   0.346 0.323
##  9 0.182        0.0396         0.0569    0.0492          0.0752  0.0520   0.330 0.315
## 10 0.174        0.0685         0.0282    0.145           0.0641  0.0478   0.332 0.457
## # … with 1,990 more rows, and abbreviated variable names ¹​upsilon_algae_to_daphnia,
## #   ²​upsilon_daphnia_to_NH4, ³​upsilon_NH4_to_algae
```
…
