…
### Extracting parameters, trajectories and flows

If you are interested in getting detailed tables containing all the samples of the parameter posteriors, you can use the `tidy_mcmc()` function:


```r
tidy_mcmc(run)
```

```
## # A tibble: 2,000 × 3
##    mcmc.chain mcmc.iteration mcmc.parameters
##         <int>          <int> <list>         
##  1          1              1 <dbl [8]>      
##  2          1              2 <dbl [8]>      
##  3          1              3 <dbl [8]>      
##  4          1              4 <dbl [8]>      
##  5          1              5 <dbl [8]>      
##  6          1              6 <dbl [8]>      
##  7          1              7 <dbl [8]>      
##  8          1              8 <dbl [8]>      
##  9          1              9 <dbl [8]>      
## 10          1             10 <dbl [8]>      
## # … with 1,990 more rows
```

By default the parameter values are nested into a list column, but you can also get a flat table with `spread = TRUE`:


```r
tidy_mcmc(run, spread = TRUE)
```

```
## # A tibble: 2,000 × 10
##    mcmc.chain mcmc.ite…¹    eta lambd…² lambd…³ lambd…⁴ upsil…⁵ upsil…⁶ upsil…⁷  zeta
##         <int>      <int>  <dbl>   <dbl>   <dbl>   <dbl>   <dbl>   <dbl>   <dbl> <dbl>
##  1          1          1 0.144   0.0677 0.0108  6.52e-4  0.103   0.0508   0.282 0.192
##  2          1          2 0.122   0.0995 0.0455  5.27e-4  0.0809  0.0504   0.262 0.264
##  3          1          3 0.137   0.186  0.0408  2.01e-3  0.0708  0.0526   0.269 0.422
##  4          1          4 0.0974  0.0853 0.00865 6.47e-3  0.0442  0.0496   0.375 0.203
##  5          1          5 0.119   0.0343 0.0365  1.64e-2  0.0750  0.0597   0.381 0.307
##  6          1          6 0.169   0.0676 0.00201 5.91e-2  0.109   0.0382   0.248 0.314
##  7          1          7 0.106   0.120  0.111   5.93e-2  0.0330  0.0605   0.403 0.952
##  8          1          8 0.117   0.0979 0.128   4.15e-2  0.0433  0.0594   0.381 0.864
##  9          1          9 0.0683  0.117  0.265   1.16e-1  0.0513  0.0575   0.357 1.34 
## 10          1         10 0.0709  0.130  0.216   1.03e-1  0.0469  0.0577   0.352 1.35 
## # … with 1,990 more rows, and abbreviated variable names ¹​mcmc.iteration,
## #   ²​lambda_algae, ³​lambda_daphnia, ⁴​lambda_NH4, ⁵​upsilon_algae_to_daphnia,
## #   ⁶​upsilon_daphnia_to_NH4, ⁷​upsilon_NH4_to_algae
```

The above table only contains the primary parameters. If you are interested in getting the predicted trajectories for individual MCMC samples, you can use the `tidy_trajectories()` function:


```r
# We have to also provide the original network model `m`
tt <- tidy_trajectories(m, run, n = 200)
tt
```


```
## # A tibble: 200 × 4
##    mcmc.chain mcmc.iteration mcmc.parameters trajectories    
##         <int>          <int> <list>          <list>          
##  1          4             28 <dbl [8]>       <tibble [1 × 5]>
##  2          2             87 <dbl [8]>       <tibble [1 × 5]>
##  3          2            319 <dbl [8]>       <tibble [1 × 5]>
##  4          4            295 <dbl [8]>       <tibble [1 × 5]>
##  5          1             71 <dbl [8]>       <tibble [1 × 5]>
##  6          2            184 <dbl [8]>       <tibble [1 × 5]>
##  7          1            371 <dbl [8]>       <tibble [1 × 5]>
##  8          2            257 <dbl [8]>       <tibble [1 × 5]>
##  9          2            198 <dbl [8]>       <tibble [1 × 5]>
## 10          1            307 <dbl [8]>       <tibble [1 × 5]>
## # … with 190 more rows
```
…
<img src="figures/z-fig-090-unnamed-chunk-21-1.jpeg" alt="plot of chunk unnamed-chunk-21" style="display: block; margin: auto;" />

Finally, if what you are interested in are not the trajectories per se but the actual flows of nutrient during the experiment, you can use the `tidy_flows()` function to extract flows in a similar way:


```r
#' Again, note that we also provide the original network model `m`
tf <- tidy_flows(m, run, n = 200)
tf
```


```
## # A tibble: 200 × 4
##    mcmc.chain mcmc.iteration mcmc.parameters flows             
##  *      <int>          <int> <list>          <list>            
##  1          1            372 <dbl [8]>       <gropd_df [6 × 3]>
##  2          2            215 <dbl [8]>       <gropd_df [6 × 3]>
##  3          4            226 <dbl [8]>       <gropd_df [6 × 3]>
##  4          1            172 <dbl [8]>       <gropd_df [6 × 3]>
##  5          1            222 <dbl [8]>       <gropd_df [6 × 3]>
##  6          2            221 <dbl [8]>       <gropd_df [6 × 3]>
##  7          3            310 <dbl [8]>       <gropd_df [6 × 3]>
##  8          2            205 <dbl [8]>       <gropd_df [6 × 3]>
##  9          2             34 <dbl [8]>       <gropd_df [6 × 3]>
## 10          2            110 <dbl [8]>       <gropd_df [6 × 3]>
## # … with 190 more rows
```
…
