…
or to a tibble:


```r
z <- tibble::as_tibble(as.matrix(fit))
z
```

```
## # A tibble: 2,000 × 8
##       eta lambda_algae lambda_daphnia lambda_NH4 upsilon_algae_to_… upsilon_daphnia_…
##     <dbl>        <dbl>          <dbl>      <dbl>              <dbl>             <dbl>
##  1 0.151        0.0365        0.00267    0.0396              0.0607            0.0564
##  2 0.122        0.0612        0.00478    0.0435              0.0479            0.0452
##  3 0.0980       0.0500        0.0211     0.00770             0.0999            0.0586
##  4 0.118        0.146         0.00510    0.170               0.0839            0.0506
##  5 0.110        0.0101        0.0120     0.00572             0.0714            0.0579
##  6 0.169        0.0706        0.0168     0.0131              0.0706            0.0381
##  7 0.165        0.0215        0.0186     0.00253             0.156             0.0571
##  8 0.207        0.0155        0.0145     0.0610              0.152             0.0505
##  9 0.0780       0.0417        0.00443    0.0288              0.0634            0.0484
## 10 0.0905       0.0486        0.0598     0.103               0.0657            0.0484
## # … with 1,990 more rows, and 2 more variables: upsilon_NH4_to_algae <dbl>,
## #   zeta <dbl>
```
…
