…
### Extracting parameters, trajectories and flows

If you are interested in getting detailed tables containing all the samples of the parameter posteriors, you can use the `tidy_mcmc()` function:


```r
tidy_mcmc(run)
```

```
## # A tibble: 2,000 × 3
##    mcmc.chain mcmc.iteration mcmc.parameters
##         <int>          <int> <list>         
##  1          1              1 <dbl [8]>      
##  2          1              2 <dbl [8]>      
##  3          1              3 <dbl [8]>      
##  4          1              4 <dbl [8]>      
##  5          1              5 <dbl [8]>      
##  6          1              6 <dbl [8]>      
##  7          1              7 <dbl [8]>      
##  8          1              8 <dbl [8]>      
##  9          1              9 <dbl [8]>      
## 10          1             10 <dbl [8]>      
## # ℹ 1,990 more rows
```

By default the parameter values are nested into a list column, but you can also get a flat table with `spread = TRUE`:


```r
tidy_mcmc(run, spread = TRUE)
```

```
## # A tibble: 2,000 × 10
##    mcmc.chain mcmc.iteration    eta lambda_algae lambda_daphnia lambda_NH4
##         <int>          <int>  <dbl>        <dbl>          <dbl>      <dbl>
##  1          1              1 0.137        0.122         0.0396     0.00669
##  2          1              2 0.0837       0.0303        0.00587    0.0204 
##  3          1              3 0.0904       0.109         0.00203    0.0354 
##  4          1              4 0.102        0.0123        0.0428     0.0880 
##  5          1              5 0.114        0.132         0.00369    0.0202 
##  6          1              6 0.112        0.0533        0.00707    0.00243
##  7          1              7 0.132        0.170         0.0119     0.0799 
##  8          1              8 0.180        0.0772        0.0273     0.0486 
##  9          1              9 0.201        0.0881        0.0571     0.0472 
## 10          1             10 0.145        0.0579        0.00255    0.0689 
## # ℹ 1,990 more rows
## # ℹ 4 more variables: upsilon_algae_to_daphnia <dbl>, upsilon_daphnia_to_NH4 <dbl>,
## #   upsilon_NH4_to_algae <dbl>, zeta <dbl>
```

The above table only contains the primary parameters. If you are interested in getting the predicted trajectories for individual MCMC samples, you can use the `tidy_trajectories()` function:


```r
# We have to also provide the original network model `m`
tt <- tidy_trajectories(m, run, n = 200)
tt
```


```
## # A tibble: 200 × 4
##    mcmc.chain mcmc.iteration mcmc.parameters trajectories    
##         <int>          <int> <list>          <list>          
##  1          4             28 <dbl [8]>       <tibble [1 × 5]>
##  2          2             87 <dbl [8]>       <tibble [1 × 5]>
##  3          2            319 <dbl [8]>       <tibble [1 × 5]>
##  4          4            295 <dbl [8]>       <tibble [1 × 5]>
##  5          1             71 <dbl [8]>       <tibble [1 × 5]>
##  6          2            184 <dbl [8]>       <tibble [1 × 5]>
##  7          1            371 <dbl [8]>       <tibble [1 × 5]>
##  8          2            257 <dbl [8]>       <tibble [1 × 5]>
##  9          2            198 <dbl [8]>       <tibble [1 × 5]>
## 10          1            307 <dbl [8]>       <tibble [1 × 5]>
## # ℹ 190 more rows
```
…
<img src="figures/z-fig-090-unnamed-chunk-21-1.jpeg" style="display: block; margin: auto;" />

Finally, if what you are interested in are not the trajectories per se but the actual flows of nutrient during the experiment, you can use the `tidy_flows()` function to extract flows in a similar way:


```r
#' Again, note that we also provide the original network model `m`
tf <- tidy_flows(m, run, n = 200)
tf
```


```
## # A tibble: 200 × 4
##    mcmc.chain mcmc.iteration mcmc.parameters flows             
##  *      <int>          <int> <list>          <list>            
##  1          1            372 <dbl [8]>       <gropd_df [6 × 3]>
##  2          2            215 <dbl [8]>       <gropd_df [6 × 3]>
##  3          4            226 <dbl [8]>       <gropd_df [6 × 3]>
##  4          1            172 <dbl [8]>       <gropd_df [6 × 3]>
##  5          1            222 <dbl [8]>       <gropd_df [6 × 3]>
##  6          2            221 <dbl [8]>       <gropd_df [6 × 3]>
##  7          3            310 <dbl [8]>       <gropd_df [6 × 3]>
##  8          2            205 <dbl [8]>       <gropd_df [6 × 3]>
##  9          2             34 <dbl [8]>       <gropd_df [6 × 3]>
## 10          2            110 <dbl [8]>       <gropd_df [6 × 3]>
## # ℹ 190 more rows
```
…
