MCMC output format
…
or to a tibble:

z <- tibble::as_tibble(as.matrix(fit))
z

## # A tibble: 2,000 × 8
##       eta lambda_algae lambda_daphnia lambda_NH4 upsilon_algae_to_daphnia
##     <dbl>        <dbl>          <dbl>      <dbl>                    <dbl>
##  1 0.182       0.00560        0.0134      0.0611                   0.110 
##  2 0.167       0.0923         0.00500     0.0404                   0.0982
##  3 0.145       0.105          0.00292     0.0810                   0.0887
##  4 0.196       0.121          0.00888     0.0267                   0.136 
##  5 0.206       0.161          0.0180      0.0113                   0.124 
##  6 0.115       0.0969         0.0352      0.0679                   0.0478
##  7 0.0951      0.0560         0.0291      0.0219                   0.0660
##  8 0.0950      0.0529         0.00946     0.0131                   0.0625
##  9 0.106       0.0671         0.0189      0.0136                   0.0803
## 10 0.0803      0.106          0.00741     0.112                    0.0630
## # ℹ 1,990 more rows
## # ℹ 3 more variables: upsilon_daphnia_to_NH4 <dbl>, upsilon_NH4_to_algae <dbl>,
## #   zeta <dbl>
…
